{
    "version": "2",
    "templates": [
        {
            "categories": [
                "Mobidick"
            ],
            "description": "Dockerpress é uma imagem customizada do Wordpress criada pela Âgencia Mobidick",
            "env": [
                {
                    "name": "MYSQL_USER",
                    "label": "[MySQL] - Usuário principal",
                    "description": "Digite o usuário principal do MySQL",
                    "default": "root"
                },
                {
                    "name": "MYSQL_ROOT_PASSWORD",
                    "label": "[MySQL] - Senha do usuário principal",
                    "description": "Digite a senha do usuário principal do MySQL",
                    "default": "root"
                },
                {
                    "name": "WORDPRESS_DB_HOST",
                    "label": "[MySQL] - Host",
                    "description": "Digite o host do MySQL",
                    "default": "percona"
                },
                {
                    "name": "WORDPRESS_DB_NAME",
                    "label": "[Banco de dados] - Nome",
                    "description": "Digite o nome do banco de dados que deve ser criado"
                },
                {
                    "name": "WORDPRESS_DB_USER",
                    "label": "[Banco de dados] - Usuário",
                    "description": "Digite o nome de usuário do banco de dados que deve ser criado"
                },
                {
                    "name": "WORDPRESS_DB_PASSWORD",
                    "label": "[Banco de dados] - Senha",
                    "description": "Digite a senha do usuário do banco de dados que deve ser criado"
                },
                {
                    "name": "WORDPRESS_TITLE",
                    "label": "[WP] - Título do site",
                    "description": "Digite o título do site"
                },
                {
                    "name": "WORDPRESS_ADMIN_USER",
                    "label": "[WP] - Usuário do admin",
                    "description": "Digite o usuário do admin",
                    "default": "mobidick"
                },
                {
                    "name": "WORDPRESS_ADMIN_PASSWORD",
                    "label": "[WP] - Senha do admin",
                    "description": "Digite a senha do admin"
                },
                {
                    "name": "WORDPRESS_ADMIN_EMAIL",
                    "label": "[WP] - E-mail do admin",
                    "description": "Digite o e-mail do admin",
                    "default": "suporte@agenciamobidick.com.br"
                },
                {
                    "name": "URL_SITE",
                    "label": "[WP] - URL do site",
                    "description": "Digite a url do site (não coloque http ou https)"
                },
                {
                    "name": "SITE_NAME",
                    "label": "Nome do Site",
                    "description": "Digite o nome do site (todo em minúsculo, sem acentos e sem espaços). Esse nome será usado no nome do container e também para a pasta do volume"
                }
            ],
            "logo": "https://bitbucket.org/agenciamobidick/dockerpress/raw/master/portainer/templates/images/dockerpress.png",
            "note": "Preencha todos os campos abaixo",
            "platform": "linux",
            "repository": {
                "stackfile": "portainer/stack/dockerpress.yml",
                "url": "https://bitbucket.org/agenciamobidick/dockerpress/src/master"
            },
            "title": "Dockerpress",
            "type": 3
        }
    ]
}